{
  "baseUrl": "http://localhost",
  "env": {
    "USER_NAME": "",
    "USER_PASSWORD": ""
  },
  "video": false,
  "defaultCommandTimeout": 30000,
  "retries": {
    "runMode": 2,
    "openMode": 0
  }
}
