<?xml version="1.0" encoding="UTF-8"?>
<svg width="48px" height="48px" viewBox="0 0 48 48" version="1.1" xmlns="http://www.w3.org/2000/svg" xmlns:xlink="http://www.w3.org/1999/xlink">
    <!-- Generator: Sketch 52.3 (67297) - http://www.bohemiancoding.com/sketch -->
    <title>L</title>
    <desc>Created with Sketch.</desc>
    <defs>
        <linearGradient x1="50%" y1="14.7170862%" x2="50%" y2="87.8509521%" id="linearGradient-1">
            <stop stop-color="#FFA414" offset="0%"></stop>
            <stop stop-color="#CA6002" offset="100%"></stop>
        </linearGradient>
        <linearGradient x1="50%" y1="0%" x2="50%" y2="100%" id="linearGradient-2">
            <stop stop-color="#FFC87E" offset="0%"></stop>
            <stop stop-color="#FF9231" offset="100%"></stop>
        </linearGradient>
        <linearGradient x1="50%" y1="0%" x2="50%" y2="100%" id="linearGradient-3">
            <stop stop-color="#914D06" offset="0%"></stop>
            <stop stop-color="#9A4A05" offset="100%"></stop>
        </linearGradient>
    </defs>
    <g id="L" stroke="none" stroke-width="1" fill="none" fill-rule="evenodd">
        <g id="Group" transform="translate(0.000000, 16.000000)" fill-rule="nonzero">
            <rect id="Rectangle" fill="url(#linearGradient-1)" x="0" y="0" width="16" height="16"></rect>
            <polygon id="Path" fill="url(#linearGradient-2)" points="0 0 16 0 16 2 2 2 2 16 0 16"></polygon>
            <polygon id="Path" fill="url(#linearGradient-3)" opacity="0.763067336" points="14 14 14 0 16 0 16 16 0 16 0 14"></polygon>
            <rect id="Rectangle" fill="#B15201" x="10" y="14" width="6" height="2"></rect>
        </g>
        <g id="Group" transform="translate(0.000000, 32.000000)" fill-rule="nonzero">
            <rect id="Rectangle" fill="url(#linearGradient-1)" x="0" y="0" width="16" height="16"></rect>
            <polygon id="Path" fill="url(#linearGradient-2)" points="0 0 16 0 16 2 2 2 2 16 0 16"></polygon>
            <polygon id="Path" fill="url(#linearGradient-3)" opacity="0.763067336" points="14 14 14 0 16 0 16 16 0 16 0 14"></polygon>
            <rect id="Rectangle" fill="#B15201" x="10" y="14" width="6" height="2"></rect>
        </g>
        <g id="Group" transform="translate(32.000000, 16.000000)" fill-rule="nonzero">
            <rect id="Rectangle" fill="url(#linearGradient-1)" x="0" y="0" width="16" height="16"></rect>
            <polygon id="Path" fill="url(#linearGradient-2)" points="0 0 16 0 16 2 2 2 2 16 0 16"></polygon>
            <polygon id="Path" fill="url(#linearGradient-3)" opacity="0.763067336" points="14 14 14 0 16 0 16 16 0 16 0 14"></polygon>
            <rect id="Rectangle" fill="#B15201" x="10" y="14" width="6" height="2"></rect>
        </g>
        <g id="Group" transform="translate(16.000000, 16.000000)" fill-rule="nonzero">
            <rect id="Rectangle" fill="url(#linearGradient-1)" x="0" y="0" width="16" height="16"></rect>
            <polygon id="Path" fill="url(#linearGradient-2)" points="0 0 16 0 16 2 2 2 2 16 0 16"></polygon>
            <polygon id="Path" fill="url(#linearGradient-3)" opacity="0.763067336" points="14 14 14 0 16 0 16 16 0 16 0 14"></polygon>
            <rect id="Rectangle" fill="#B15201" x="10" y="14" width="6" height="2"></rect>
        </g>
    </g>
</svg>